<?xml version="1.0" encoding="UTF-8"?><rss version="2.0" xmlns:dc="http://purl.org/dc/elements/1.1/"><channel><title><![CDATA[News - Chinese [KBS WORLD Radio] | 南北韩]]></title><link><![CDATA[http://world.kbs.co.kr/rss/rss_news.htm?lang=c&amp;id=IK]]></link><ttl>15</ttl><description><![CDATA[重点报道发生在韩半岛上的重大事件]]></description><language>zh</language><item><title><![CDATA[金与正：韩美联合军演将使南北关系前景蒙上阴影]]></title><link><![CDATA[http://world.kbs.co.kr/service/news_view.htm?lang=c&Seq_Code=72442]]></link><description><![CDATA[ [南北韩] : <BR>韩国国际广播电台报道：北韩劳动党中央委员会副部长金与正就预定本月举行的下半年韩美联合军演表示，将关注南侧会否做出果敢的决定。

金与正1日通过朝中社发表谈话指出，7月南北通信线的恢复只是物理上的连接，对此进行过度解读是为时过早的轻率举动，否认了南北举行首脑会谈的可能性。

金与正还表示，持续听到联合军演将有可能按照原计划强行展开的令人不悦的消息，在当前这种重要的转换时机进行联合军演，将成为损害南北首脑的决心、使南北关系前景蒙上阴影的毫无趣致的序曲。

金与正强调，将关注南侧是将又一次展开敌对性的战争演习，还是会做出果敢的决定。

南北通信联络线最近全面修复，韩国统一部表示希望推迟预定于8月举行的韩美联合军演，不过军方则表示训练日程、规模和方式尚未确定，正与美国进行协商。按照惯例，韩美两国8月第二周以电脑模拟方式进行联合指挥所演习。 ...<BR><BR><a href="http://world.kbs.co.kr/service/news_view.htm?lang=c&Seq_Code=72442">[more...]</a><BR>]]></description><author>KBS WORLD Radio</author><pubDate>Mon, 02 Aug 2021 09:13:32 +0900</pubDate><category>南北韩</category><guid><![CDATA[http://world.kbs.co.kr/service/news_view.htm?lang=c&Seq_Code=72442]]></guid><enclosure url='http://worldimg.kbs.co.kr/src/images/news/202108/210802093644_76.jpg' type='image/jpeg' /></item><item><title><![CDATA[习近平回电感谢金正恩发来贺电和慰问口信]]></title><link><![CDATA[http://world.kbs.co.kr/service/news_view.htm?lang=c&Seq_Code=72423]]></link><description><![CDATA[ [南北韩] : <BR>韩国国际广播电台报道：中国国家主席习近平回电北韩国务委员长金正恩，感谢其在中国共产党成立100周年之际发来贺电，表示此举展现了两国首脑的友谊，中方将切实守护中朝关系。 
 
北韩朝鲜中央广播电台30日报道称，中国国家主席习近平回电感谢北韩国务委员长金正恩在中国共产党成立100周年之际发来贺电和转达口信慰问河南省洪涝灾害。
 
习近平在回电中表示，金正恩的贺电展现了总书记同志、朝鲜党和人民对我、对中国党和人民的友谊，我代表中国党和人民表达诚挚的谢意，并向总书记、朝鲜党和人民致以诚挚的问候。
 
习近平还强调，中国和朝鲜都是共产党领导的社会主义国家，在新形势下，中方将落实与朝方达成的重要共识，切实守护中朝关系。
 
习近平还就金正恩转达口信慰问中国河南省等地发生严重洪涝灾害表示了感谢。 ...<BR><BR><a href="http://world.kbs.co.kr/service/news_view.htm?lang=c&Seq_Code=72423">[more...]</a><BR>]]></description><author>KBS WORLD Radio</author><pubDate>Fri, 30 Jul 2021 11:08:40 +0900</pubDate><category>南北韩</category><guid><![CDATA[http://world.kbs.co.kr/service/news_view.htm?lang=c&Seq_Code=72423]]></guid><enclosure url='http://worldimg.kbs.co.kr/src/images/news/202107/210730092932_66.jpg' type='image/jpeg' /></item><item><title><![CDATA[南北韩东海地区军事通信线恢复正常]]></title><link><![CDATA[http://world.kbs.co.kr/service/news_view.htm?lang=c&Seq_Code=72409]]></link><description><![CDATA[ [南北韩] : <BR>韩国国际广播电台报道：南北韩东海地区军事通信线已全面修复。
 
韩军有关人士29日表示， ...<BR><BR><a href="http://world.kbs.co.kr/service/news_view.htm?lang=c&Seq_Code=72409">[more...]</a><BR>]]></description><author>KBS WORLD Radio</author><pubDate>Thu, 29 Jul 2021 13:54:25 +0900</pubDate><category>南北韩</category><guid><![CDATA[http://world.kbs.co.kr/service/news_view.htm?lang=c&Seq_Code=72409]]></guid><enclosure url='http://worldimg.kbs.co.kr/src/images/news/202107/210729125739_45.jpg' type='image/jpeg' /></item><item><title><![CDATA[金正恩参谒北中友谊塔并敬献花圈]]></title><link><![CDATA[http://world.kbs.co.kr/service/news_view.htm?lang=c&Seq_Code=72400]]></link><description><![CDATA[ [南北韩] : <BR>韩国国际广播电台报道：据北韩《劳动新闻》报道，在南北《停战协定》签署日之际，北韩国务委员长金正恩参谒北中友谊塔并敬献花圈。

报道称，金正恩委员长在祖国解放战争胜利68周年之际前往友谊塔，以总书记名义敬献花圈。

金正恩表示，志愿军官兵高举抗美援朝、保家卫国的旗帜，在激烈的战争年代同朝军并肩战斗，他们真正的战斗友谊和无比的牺牲精神深深地镌刻在伟大的战胜历史中，清晰地留在朝鲜人民的记忆里。

金正恩还强调，在朝鲜经历最艰难关头的时刻，中国人民献出鲜血支援朝鲜人民神圣历史斗争，他们的高贵灵魂和殊勋将同繁荣的社会主义朝鲜一道永垂不朽，以血肉纽带结成的朝中友谊在实现共同伟业的道路上将世世代代、坚定不移地传承下去。

金正恩敬献花圈后，北韩军名誉卫兵队列队行进，金正恩与随行干部一同参观了友谊塔。

位于平壤牡丹峰地区的北中友谊塔建立于1959年，旨在纪念参加6.25战争并牺牲的中国人民志愿军，是北中友好的象征。 ...<BR><BR><a href="http://world.kbs.co.kr/service/news_view.htm?lang=c&Seq_Code=72400">[more...]</a><BR>]]></description><author>KBS WORLD Radio</author><pubDate>Thu, 29 Jul 2021 09:37:53 +0900</pubDate><category>南北韩</category><guid><![CDATA[http://world.kbs.co.kr/service/news_view.htm?lang=c&Seq_Code=72400]]></guid><enclosure url='http://worldimg.kbs.co.kr/src/images/news/202107/210729103517_51.jpg' type='image/jpeg' /></item><item><title><![CDATA[金正恩在老兵大会上发表演讲 未提核威慑力]]></title><link><![CDATA[http://world.kbs.co.kr/service/news_view.htm?lang=c&Seq_Code=72382]]></link><description><![CDATA[ [南北韩] : <BR>韩国国际广播电台报道：适逢《停战协定》签订日，北韩国务委员长金正恩27日出席第七次全国老兵大会并发表演讲。 ...<BR><BR><a href="http://world.kbs.co.kr/service/news_view.htm?lang=c&Seq_Code=72382">[more...]</a><BR>]]></description><author>KBS WORLD Radio</author><pubDate>Wed, 28 Jul 2021 10:57:52 +0900</pubDate><category>南北韩</category><guid><![CDATA[http://world.kbs.co.kr/service/news_view.htm?lang=c&Seq_Code=72382]]></guid><enclosure url='http://worldimg.kbs.co.kr/src/images/news/202107/210728093727_84.jpg' type='image/jpeg' /></item><item><title><![CDATA[南北韩通信联络线27日上午重新开通]]></title><link><![CDATA[http://world.kbs.co.kr/service/news_view.htm?lang=c&Seq_Code=72367]]></link><description><![CDATA[ [南北韩] : <BR>韩国国际广播电台报道：韩国总统府青瓦台27日上午在紧急召开的新闻发布会上透露，南北韩被切断的通信联络线已经获得修复，南北韩通过该联络线开始通话。

去年6月北韩以居住在韩国的脱北者团体向北韩散发传单为由，单方面切断了包括板门店联络渠道在内的南北韩通信联络线。在时隔13个月以后，南北韩通信联络线得以重启。

青瓦台国民沟通首席秘书朴洙贤表示，27日上午10时，被切断的南北韩通信联络线获得修复。据青瓦台方面透露，南北韩首脑今年4月开始通过多次书信往来，就恢复南北韩关系等问题进行了沟通。在此过程中，两位首脑就先重启通信联络线事宜达成了协议。南北韩首脑还就尽早恢复南北韩之间的信赖、重新推动南北韩关系发展达成了共识。青瓦台国民沟通首席秘书朴洙贤还表示，期待南北韩通信联络线的修复、重启能对今后南北韩关系改善与发展带来积极影响。

北韩官方媒体朝鲜中央通讯社当天也就南北韩重启通信联络线进行了报道。据推测，南北韩在同时发布上述消息之前进行了沟通。北韩媒体报道说，根据北南首脑达成的协议，27日10时开始，双方所有通信联络线重启，通信联络线的恢复将为双方关系的改善与发展带来积极影响。朝中社还说，北南首脑商定通过修复中断的通信网，为恢复双方相互信赖、谋求和解之路迈出一大步。 ...<BR><BR><a href="http://world.kbs.co.kr/service/news_view.htm?lang=c&Seq_Code=72367">[more...]</a><BR>]]></description><author>KBS WORLD Radio</author><pubDate>Tue, 27 Jul 2021 13:32:05 +0900</pubDate><category>南北韩</category><guid><![CDATA[http://world.kbs.co.kr/service/news_view.htm?lang=c&Seq_Code=72367]]></guid><enclosure url='http://worldimg.kbs.co.kr/src/images/news/202107/210727124306_83.jpg' type='image/jpeg' /></item><item><title><![CDATA[北韩《劳动新闻》：务农是国家头等大事 应全力支援农村]]></title><link><![CDATA[http://world.kbs.co.kr/service/news_view.htm?lang=c&Seq_Code=72328]]></link><description><![CDATA[ [南北韩] : <BR>韩国国际广播电台报道：在日趋严重的经济困难中，北韩再次敦促民众今年孤注一掷、集中全国力量发展农业。 
 
劳动党党报《劳动新闻》23日在题为“全党应竭尽全力支援全国农业一线”的评论中强调，务农是今年下达的主要国家政策中的头等大事，这片土地上的人民应将务农视为自己本人、子女的命运和有关国家存亡的生死问题，应在物质和精神两方面对农村进行全力支援。
 
报道说，在困难和不利的条件中，今年整体农业如期取得了进展。但去年从稻谷和玉米开始成熟的8月到进行秋收的10月连遭台风袭击，粮米产量大幅减少。报道指出，应对发生自然灾害的可能性提高警惕。
 
报道特别指出，近期出现酷暑和高温现象，无论以去年务农的教训来看，还是以今年农业的重要性来看，积极支援农村都是不可中断和必须继续推进的责任性事业。 ...<BR><BR><a href="http://world.kbs.co.kr/service/news_view.htm?lang=c&Seq_Code=72328">[more...]</a><BR>]]></description><author>KBS WORLD Radio</author><pubDate>Fri, 23 Jul 2021 15:37:55 +0900</pubDate><category>南北韩</category><guid><![CDATA[http://world.kbs.co.kr/service/news_view.htm?lang=c&Seq_Code=72328]]></guid><enclosure url='http://worldimg.kbs.co.kr/src/images/news/202107/210723011716_34.jpg' type='image/jpeg' /></item><item><title><![CDATA[4成北韩人口营养不良]]></title><link><![CDATA[http://world.kbs.co.kr/service/news_view.htm?lang=c&Seq_Code=72210]]></link><description><![CDATA[ [南北韩] : <BR>韩国国际广播电台报道：目前北韩4成人口处于营养不良状态。

据联合国粮农组织(FAO)、联合国国际农业发展基金会(IFAD)、联合国儿童基金会(UNICEF)、世界粮食计划署(WFP)、世界卫生组织(WHO)在13日联合发行的《2021年世界粮食安全与营养水平》报告中指出，2018年至2020年，42.4%的北韩居民处于营养不良状态，相较2004年至2006年的33.8%增长了9个百分点。

去年北韩有30万名未满5岁的儿童发育不良，占整体的18.2%，虽然相较2012年的26.1%有所好转，但与其他国家相比仍处于较高水平。

营养不良的人口占比高于北韩的国家有索马里、中非共和国、海地、也门、马达加斯加等。联合国粮农组织已将北韩列入需要粮食外援的名单。目前包括北韩在内，需要接受粮食外援的国家共有45个。 ...<BR><BR><a href="http://world.kbs.co.kr/service/news_view.htm?lang=c&Seq_Code=72210">[more...]</a><BR>]]></description><author>KBS WORLD Radio</author><pubDate>Tue, 13 Jul 2021 16:10:06 +0900</pubDate><category>南北韩</category><guid><![CDATA[http://world.kbs.co.kr/service/news_view.htm?lang=c&Seq_Code=72210]]></guid><enclosure url='http://worldimg.kbs.co.kr/src/images/news/202107/210713125502_64.jpg' type='image/jpeg' /></item><item><title><![CDATA[北韩媒体警告韩美军演：战争演习与和平绝不能共存]]></title><link><![CDATA[http://world.kbs.co.kr/service/news_view.htm?lang=c&Seq_Code=72202]]></link><description><![CDATA[ [南北韩] : <BR>韩国国际广播电台报道：在预定于8月举行韩美联合军演之际，北韩对外宣传媒体纷纷对韩国发布警告信息。 
 
“我们民族之间”13日在题为“谁是造成局势紧张的罪魁祸首”的评论中表示，目前朝鲜半岛局势不稳定起因于全面与外部势力勾结的南朝鲜军方好战狂的鲁莽军事对抗阴谋。
 
报道说，进入今年后，南朝鲜军方好战狂与外部势力勾结，今年3月举行了北侵联合军事演习，随后又强行进行联合编队军综合训练和联合空运货物搭载及卸货演练，甚至前往海外参加联合空中演习。不久前，南朝鲜还参与美国主导的联合海上训练“太平洋先锋队2021”军演，疯狂于战争演习。
 
报道还指出，截至2023年，韩军计划实现高空无人侦察机(HUAS)和全球鹰无人机（RQ-4）1个大队战力化以及运入增强末端高空区域防御系统（THAAD）的有关物资，但战争演习、武力增强阴谋与和平绝对不能共存。 ...<BR><BR><a href="http://world.kbs.co.kr/service/news_view.htm?lang=c&Seq_Code=72202">[more...]</a><BR>]]></description><author>KBS WORLD Radio</author><pubDate>Tue, 13 Jul 2021 11:32:31 +0900</pubDate><category>南北韩</category><guid><![CDATA[http://world.kbs.co.kr/service/news_view.htm?lang=c&Seq_Code=72202]]></guid><enclosure url='http://worldimg.kbs.co.kr/src/images/news/202107/210713094419_0.jpg' type='image/jpeg' /></item><item><title><![CDATA[金正恩参谒锦绣山太阳宫 打破身体抱恙传闻]]></title><link><![CDATA[http://world.kbs.co.kr/service/news_view.htm?lang=c&Seq_Code=72156]]></link><description><![CDATA[ [南北韩] : <BR>韩国国际广播电台报道：北韩国务委员长金正恩同劳动党高层干部参谒锦绣山太阳宫，纪念北韩已故主席金日成逝世27周年。金正恩的亮相打破了关于其身体抱恙的传闻。

据朝鲜中央通讯社8日报道，金正恩同志于7月8日0时参谒锦绣山太阳宫，劳动党中央委员会政治局成员和党中央指导机构成员随同前往。

7日关于金正恩身体抱恙的传闻在各种渠道扩散，韩国国家情报院表示，这一说法毫无根据。随后8日金正恩即通过官方媒体公开亮相。

朝鲜中央通讯社报道称，金正恩步入保存金日成父子遗体的永生厅致敬。以金正恩和劳动中央委员会、国务委员会、最高常任委员会及内阁名义敬献的花篮安置在金日成、金正日的立像前。

除2018年外，金正恩自2012年执政以来每年都在祖父金日成的忌日参谒锦绣山太阳宫。 ...<BR><BR><a href="http://world.kbs.co.kr/service/news_view.htm?lang=c&Seq_Code=72156">[more...]</a><BR>]]></description><author>KBS WORLD Radio</author><pubDate>Thu, 08 Jul 2021 09:29:09 +0900</pubDate><category>南北韩</category><guid><![CDATA[http://world.kbs.co.kr/service/news_view.htm?lang=c&Seq_Code=72156]]></guid><enclosure url='http://worldimg.kbs.co.kr/src/images/news/202107/210708124224_13.jpg' type='image/jpeg' /></item><item><title><![CDATA[《7.4南北韩共同声明》发布49周年 北媒强调统一三大原则]]></title><link><![CDATA[http://world.kbs.co.kr/service/news_view.htm?lang=c&Seq_Code=72122]]></link><description><![CDATA[ [南北韩] : <BR>韩国国际广播电台报道： ...<BR><BR><a href="http://world.kbs.co.kr/service/news_view.htm?lang=c&Seq_Code=72122">[more...]</a><BR>]]></description><author>KBS WORLD Radio</author><pubDate>Mon, 05 Jul 2021 16:24:53 +0900</pubDate><category>南北韩</category><guid><![CDATA[http://world.kbs.co.kr/service/news_view.htm?lang=c&Seq_Code=72122]]></guid><enclosure url='http://worldimg.kbs.co.kr/src/images/news/202107/210705125204_6.jpg' type='image/jpeg' /></item><item><title><![CDATA[北韩谴责日本欲借奥运会实现政治野心]]></title><link><![CDATA[http://world.kbs.co.kr/service/news_view.htm?lang=c&Seq_Code=72090]]></link><description><![CDATA[ [南北韩] : <BR>韩国国际广播电台报道：北韩强烈谴责日本允许在奥运赛场内使用旭日旗、在奥运地图上错标独岛为日本领土、在日本奥运金牌得主展区展示韩国马拉松金牌得主孙基祯相关信息等做法，称日本欲借东京奥运会实现其政治野心。
 
北韩对外宣传媒体“我们民族之间”30日发表题为《东京奥运会和日本的政治野心》的评论，强烈谴责日本欲借奥运会实现政治野心，并称日本就是当今的亚洲版纳粹犯罪国家。
 
评论谴责日本违反奥运会精神，称东京奥运会并不存在奥运会基本理念，只注重于歪曲历史、美化和掩盖日本掠夺领土的野心和沾满鲜血的侵略历史。评论讽刺东京奥运会似乎增加了侵略他国领土和歪曲历史的项目。
 
评论指出，在全球疫情危机下，日本强行举行奥运会意在将其有关独岛主权的主张和侵略历史正当化，再次走向军国主义。

此前，北韩以在疫情中保护运动员为由，宣布不参加东京奥运会。 ...<BR><BR><a href="http://world.kbs.co.kr/service/news_view.htm?lang=c&Seq_Code=72090">[more...]</a><BR>]]></description><author>KBS WORLD Radio</author><pubDate>Thu, 01 Jul 2021 14:41:12 +0900</pubDate><category>南北韩</category><guid><![CDATA[http://world.kbs.co.kr/service/news_view.htm?lang=c&Seq_Code=72090]]></guid><enclosure url='http://worldimg.kbs.co.kr/src/images/news/202107/210701013741_53.jpg' type='image/jpeg' /></item><item><title><![CDATA[金正恩训斥部分责任干部怠慢执行防疫工作]]></title><link><![CDATA[http://world.kbs.co.kr/service/news_view.htm?lang=c&Seq_Code=72073]]></link><description><![CDATA[ [南北韩] : <BR>韩国国际广播电台报道：据朝中社报道，北韩劳动党中央委员会政治局在本部大楼召开了扩大会议。 
 
在会议中，北韩国务委员长金正恩训斥负责国家重大事务的责任干部消极怠慢执行防疫工作，以致于发生对国家和人民的安全构成危机的重大问题。
 
金正恩表示，没有必要袒护装模作样的工作和只知保住官位的干部，并公布了加强干部管制和处罚的原则。
 
当天的会议对政治局常务委员及委员、党中央委员会书记等进行了问责性人事调动，但北韩并未公开具体人事任免内容。
 
韩国统一部表示，新冠疫情扩散后，北韩破例经常召开政治局会议进行党内整风。但此次会议的原因是党内整风，还是出现新冠疫情等紧急情况，目前尚难预计。统一部表示，将视北韩和中国边境情况以及北韩人事调动内容等后续动向再作综合分析。
 
 ...<BR><BR><a href="http://world.kbs.co.kr/service/news_view.htm?lang=c&Seq_Code=72073">[more...]</a><BR>]]></description><author>KBS WORLD Radio</author><pubDate>Wed, 30 Jun 2021 13:29:49 +0900</pubDate><category>南北韩</category><guid><![CDATA[http://world.kbs.co.kr/service/news_view.htm?lang=c&Seq_Code=72073]]></guid><enclosure url='http://worldimg.kbs.co.kr/src/images/news/202106/210630011742_61.jpg' type='image/jpeg' /></item><item><title><![CDATA[6.25韩战爆发71周年北韩未发布反美信息]]></title><link><![CDATA[http://world.kbs.co.kr/service/news_view.htm?lang=c&Seq_Code=72032]]></link><description><![CDATA[ [南北韩] : <BR>韩国国际广播电台报道：北韩在6.25韩战爆发71周年的25日并未发布任何反美信息。北韩当局并未举行反美活动，劳动党党报《劳动新闻》等媒体也未大肆宣扬。 
 
每到6月25日，北韩必定举行大规模反美群众集会，但从2018年历史首次举行新加坡美北首脑会谈至今，北韩连续4年未举行相关活动。
 
当天《劳动新闻》仅在第2版对6.25战争作出了一项报道，但未刊载照片。但该项报道并非针对美国，而是聚焦于对北韩最高领导者的偶像化。
 
另外，美国国防部当地时间25日在韩战爆发71周年的一天前表示，韩美同盟是和平的轴心。美国国防部发言人约翰·柯比当天在记者会上表示，韩战爆发后，美国在过去71年的时间里对同盟作出的承诺坚如磐石，韩美同盟建基于美国和韩国国民的共同牺牲之上。他说，韩美同盟是东北亚和自由开放的印度太平洋以及全世界的和平、安全和繁荣的轴心。 ...<BR><BR><a href="http://world.kbs.co.kr/service/news_view.htm?lang=c&Seq_Code=72032">[more...]</a><BR>]]></description><author>KBS WORLD Radio</author><pubDate>Fri, 25 Jun 2021 15:17:31 +0900</pubDate><category>南北韩</category><guid><![CDATA[http://world.kbs.co.kr/service/news_view.htm?lang=c&Seq_Code=72032]]></guid><enclosure url='http://worldimg.kbs.co.kr/src/images/news/202106/210625012508_21.jpg' type='image/jpeg' /></item><item><title><![CDATA[金与正：美国对北韩持有“错误的期待”]]></title><link><![CDATA[http://world.kbs.co.kr/service/news_view.htm?lang=c&Seq_Code=71985]]></link><description><![CDATA[ [南北韩] : <BR>韩国国际广播电台报道：北韩劳动党中央委员会副部长金与正日前称美国对北韩持有“错误的期待”。

金与正副部长22日通过北韩官方通信社朝中社发表谈话称，她已获悉美国总统国家安全顾问沙利文日前的言行。

美国白宫国安顾问杰克·沙利文当地时间20日在美国ABC电视台节目中表示，美国正在等待平壤发出明确的启动对话的信号。
沙利文指出，在北韩本月17日关于对话与对决的言论中看到了令人感兴趣的信号。 

对此金与正表示，正如北韩有句“做梦不如解梦”的谚语。
美国为了自寻安慰，而在进行自我“解梦”。这种错误的期待将会给美国带去更大的失望。

 ...<BR><BR><a href="http://world.kbs.co.kr/service/news_view.htm?lang=c&Seq_Code=71985">[more...]</a><BR>]]></description><author>KBS WORLD Radio</author><pubDate>Tue, 22 Jun 2021 14:29:36 +0900</pubDate><category>南北韩</category><guid><![CDATA[http://world.kbs.co.kr/service/news_view.htm?lang=c&Seq_Code=71985]]></guid><enclosure url='http://worldimg.kbs.co.kr/src/images/news/202106/210622125620_55.jpg' type='image/jpeg' /></item><item><title><![CDATA[韩原子力研究院内网被入侵 正调查是否为北韩所为]]></title><link><![CDATA[http://world.kbs.co.kr/service/news_view.htm?lang=c&Seq_Code=71973]]></link><description><![CDATA[ [南北韩] : <BR>韩国国际广播电台报道： 韩国原子力研究院服务器遭入侵。
 
国民力量党议员河泰庆18日在记者会上表示，未经批准的13个外部IP地址擅自登入原子力研究院内部网络。河泰庆介绍， ...<BR><BR><a href="http://world.kbs.co.kr/service/news_view.htm?lang=c&Seq_Code=71973">[more...]</a><BR>]]></description><author>KBS WORLD Radio</author><pubDate>Mon, 21 Jun 2021 15:25:01 +0900</pubDate><category>南北韩</category><guid><![CDATA[http://world.kbs.co.kr/service/news_view.htm?lang=c&Seq_Code=71973]]></guid><enclosure url='http://worldimg.kbs.co.kr/src/images/news/202106/210621125613_6.jpg' type='image/jpeg' /></item><item><title><![CDATA[金正恩：稳定管理半岛局势 做好对话和对决的所有准备]]></title><link><![CDATA[http://world.kbs.co.kr/service/news_view.htm?lang=c&Seq_Code=71950]]></link><description><![CDATA[ [南北韩] : <BR>韩国国际广播电台报道：美国拜登政府成立后，北韩劳动党总书记金正恩在劳动党全体会议中首次正式发布对南和对美信息。 
 
据朝中社18日报道，劳动党第八届中央委员会第三次全体会议17日继续召开，就第4个议题“当前国际局势分析和劳动党的应对方向”进行了讨论。
 
金正恩在会议中表示，若要维护国家的尊严和自主性发展利益、让和平的环境和国家安全得到可靠的保障，应做好对话和对决的所有准备，特别是更需彻底做好进行对决的准备。
 
金正恩还表明了有关重要的国际和地区问题等对外政策的立场和原则，表示应灵活应对瞬息万变的国际形势，并集中力量稳定管理朝鲜半岛（韩半岛）局势。金正恩说，已完成对美国拜登政府发布的对朝政策的研讨工作。
 
朝中社介绍说，党总书记同志对美国政府对朝政策方向具体地进行了分析，明示今后在对美关系中将坚持的适当应对和活动方案。 ...<BR><BR><a href="http://world.kbs.co.kr/service/news_view.htm?lang=c&Seq_Code=71950">[more...]</a><BR>]]></description><author>KBS WORLD Radio</author><pubDate>Fri, 18 Jun 2021 09:01:16 +0900</pubDate><category>南北韩</category><guid><![CDATA[http://world.kbs.co.kr/service/news_view.htm?lang=c&Seq_Code=71950]]></guid><enclosure url='http://worldimg.kbs.co.kr/src/images/news/202106/210618092150_23.jpg' type='image/jpeg' /></item><item><title><![CDATA[北韩劳动党八届三中全会进入第二天 讨论各部门下半年目标]]></title><link><![CDATA[http://world.kbs.co.kr/service/news_view.htm?lang=c&Seq_Code=71936]]></link><description><![CDATA[ [南北韩] : <BR>韩国国际广播电台报道：北韩劳动党全体大会第二天会议继续举行，当天各部门分组举行会议，就今年下半年各部门目标和政策进行了讨论。

据朝鲜中央通讯社17日报道，党第八届中央委员会第三次全体会议16日继续举行，为在下半年继续按计划推进各项斗争任务取得成果，组建了各部门小组召开研讨会。

各部门分冶金·铁路运输小组、化学工业小组、电力·煤炭及机械工业小组、建设建材小组、轻工业小组、农业小组、紧急防疫小组、反社会主义·非社会主义斗争小组、党务工作小组召开会议，劳动党政治局常务委员会委员和政治局委员对研讨会进行了指导。

报道称，研讨会对全会决议草案进行了研究，确定了科学实际的政策方案和计划数据。

报道还称，全体会议仍在继续进行。 ...<BR><BR><a href="http://world.kbs.co.kr/service/news_view.htm?lang=c&Seq_Code=71936">[more...]</a><BR>]]></description><author>KBS WORLD Radio</author><pubDate>Thu, 17 Jun 2021 10:49:23 +0900</pubDate><category>南北韩</category><guid><![CDATA[http://world.kbs.co.kr/service/news_view.htm?lang=c&Seq_Code=71936]]></guid><enclosure url='http://worldimg.kbs.co.kr/src/images/news/202106/210616123827_96.jpg' type='image/jpeg' /></item><item><title><![CDATA[金正恩15日主持劳动党全体会议]]></title><link><![CDATA[http://world.kbs.co.kr/service/news_view.htm?lang=c&Seq_Code=71922]]></link><description><![CDATA[ [南北韩] : <BR>韩国国际广播电台报道：北韩15日在劳动党总书记金正恩的主持下召开了劳动党全体会议。预计北韩在此次会议中讨论了符合国际形势的重大事业，因此北韩会否对美国“通过外交实现韩半岛无核化”的对北政策原则发布立场，引人关注。
 
金正恩在会议上介绍说，今年上半年工业生产总额达到预定目标的144%， 同比增长125%，且现货大幅增加，朝鲜经济整体上呈增长态势。但金正恩也表示，由于受去年台风的影响，未能实现谷物生产目标，出现粮食供应短缺等问题，此次全体会议应积极拿出解决方案。
 
此次劳动党全体会议的主要议题包括今年上半年的国家主要政策执行情况总结及对策、针对紧急防疫情况和国际形势的分析和应对方向。
 
会议首日就今年上半年的政策促进成果、农业部门课题、紧急防疫情况等问题进行了讨论，预计16日的会议会对国际形势进行分析并讨论应对方向。 ...<BR><BR><a href="http://world.kbs.co.kr/service/news_view.htm?lang=c&Seq_Code=71922">[more...]</a><BR>]]></description><author>KBS WORLD Radio</author><pubDate>Wed, 16 Jun 2021 11:48:39 +0900</pubDate><category>南北韩</category><guid><![CDATA[http://world.kbs.co.kr/service/news_view.htm?lang=c&Seq_Code=71922]]></guid><enclosure url='http://worldimg.kbs.co.kr/src/images/news/202106/210616123827_96.jpg' type='image/jpeg' /></item><item><title><![CDATA[金正恩主持党中央军委会扩大会议 强调保持高度动员态势]]></title><link><![CDATA[http://world.kbs.co.kr/service/news_view.htm?lang=c&Seq_Code=71898]]></link><description><![CDATA[ [南北韩] : <BR>韩国国际广播电台报道：北韩在国务委员长金正恩的主持下召开劳动党中央军事委员会扩大会议，强调 ...<BR><BR><a href="http://world.kbs.co.kr/service/news_view.htm?lang=c&Seq_Code=71898">[more...]</a><BR>]]></description><author>KBS WORLD Radio</author><pubDate>Mon, 14 Jun 2021 15:23:32 +0900</pubDate><category>南北韩</category><guid><![CDATA[http://world.kbs.co.kr/service/news_view.htm?lang=c&Seq_Code=71898]]></guid><enclosure url='http://worldimg.kbs.co.kr/src/images/news/202106/210614010635_78.jpg' type='image/jpeg' /></item><item><title><![CDATA[南北韩中断联络已有1年 ]]></title><link><![CDATA[http://world.kbs.co.kr/service/news_view.htm?lang=c&Seq_Code=71857]]></link><description><![CDATA[ [南北韩] : <BR>韩国国际广播电台报道：韩国统一部9日表示，韩方每天上午通过板门店渠道试图与北韩进行联络，但北韩没有应答。 
 
统一部一位人士当天对记者说，北韩切断南北间所有的联络渠道后，板门店联络渠道也事实上处于中断状态，但韩方每天上午9点仍向北韩发送信号。
 
北韩1年前即去年6月9日对部分脱北者团体向北韩散发传单提出抗议，单方面切断了板门店渠道等南北韩间所有的通信联络线。
 
统一部这位人士表示，自己认为无论北韩的立场如何，南北韩间都应继续开放对话渠道。韩方每天向北韩发送信号是韩方联络官员的基本工作之一，但迄今并未得到北韩的回应。 ...<BR><BR><a href="http://world.kbs.co.kr/service/news_view.htm?lang=c&Seq_Code=71857">[more...]</a><BR>]]></description><author>KBS WORLD Radio</author><pubDate>Wed, 09 Jun 2021 16:35:33 +0900</pubDate><category>南北韩</category><guid><![CDATA[http://world.kbs.co.kr/service/news_view.htm?lang=c&Seq_Code=71857]]></guid><enclosure url='http://worldimg.kbs.co.kr/src/images/news/202106/210609125108_2.jpg' type='image/jpeg' /></item><item><title><![CDATA[北韩劳动党总书记金正恩主持召开党干部会议]]></title><link><![CDATA[http://world.kbs.co.kr/service/news_view.htm?lang=c&Seq_Code=71836]]></link><description><![CDATA[ [南北韩] : <BR>韩国国际广播电台报道：在北韩劳动党中央委员会全体会议即将召开之际，北韩劳动党总书记金正恩主持召开党干部会议，商讨了今年下半年经济政策和民生稳定等方案。 
 
据北韩朝鲜中央通讯社8日报道，北韩劳动党总书记金正恩7日在劳动党中央委员会本部大楼主持召开劳动党中央委员会和各地区劳动党委员会干部会议。金正恩在会上了解了国家经济事业和民生保障等有待解决的问题，传达了一系列重要任务，并指出了党中央各级干部和各地区党委员会有待推进的事业和研究方向。金正恩表示，将以此次党中央委员会全体会议为契机，拟定有助于国家经济事业发展和稳定人民生活的构想。朝中社在报道中并未具体报道金正恩所提出的构想的内容。
 
北韩在国防委员会委员长金正日时期并未召开过由劳动党中央委员和各地党委干部一起参加的会议。与推行“先军政治”的父亲金正日不同的是，北韩劳动党总书记金正恩走的是利用党内各组织和机关推行“党的领导”的路线。 ...<BR><BR><a href="http://world.kbs.co.kr/service/news_view.htm?lang=c&Seq_Code=71836">[more...]</a><BR>]]></description><author>KBS WORLD Radio</author><pubDate>Tue, 08 Jun 2021 13:21:32 +0900</pubDate><category>南北韩</category><guid><![CDATA[http://world.kbs.co.kr/service/news_view.htm?lang=c&Seq_Code=71836]]></guid><enclosure url='http://worldimg.kbs.co.kr/src/images/news/202106/210608125944_46.jpg' type='image/jpeg' /></item><item><title><![CDATA[《朝鲜新报》称北韩推进祖国统一的意志坚定不移]]></title><link><![CDATA[http://world.kbs.co.kr/service/news_view.htm?lang=c&Seq_Code=71821]]></link><description><![CDATA[ [南北韩] : <BR>韩国国际广播电台报道： ...<BR><BR><a href="http://world.kbs.co.kr/service/news_view.htm?lang=c&Seq_Code=71821">[more...]</a><BR>]]></description><author>KBS WORLD Radio</author><pubDate>Mon, 07 Jun 2021 13:28:27 +0900</pubDate><category>南北韩</category><guid><![CDATA[http://world.kbs.co.kr/service/news_view.htm?lang=c&Seq_Code=71821]]></guid><enclosure url='http://worldimg.kbs.co.kr/src/images/news/202106/210607124309_57.jpg' type='image/jpeg' /></item><item><title><![CDATA[金正恩致电祝贺前古巴第一书记劳尔·卡斯特罗90岁生日]]></title><link><![CDATA[http://world.kbs.co.kr/service/news_view.htm?lang=c&Seq_Code=71814]]></link><description><![CDATA[ [南北韩] : <BR>韩国国际广播电台报道：北韩国务委员长金正恩向最近辞去古巴共产党第一书记职务的劳尔·卡斯特罗发去贺电，祝贺其90岁生日。 
 
据朝中社4日报道，金正恩同志3日向劳尔·卡斯特罗同志发去贺电，称其为古巴革命的元老、朝鲜人民亲近的朋友和革命的战友，真诚祝愿卡斯特罗同志健康和幸福。
 
金正恩强调，劳尔·卡斯特罗同志与菲德尔·卡斯特罗同志一道进行武装斗争，为古巴人民争取自由和解放作出了杰出贡献，战胜了重重考验和波澜，领导斗争取得了胜利。
 
古巴前第一书记劳尔·卡斯特罗今年4月将第一书记职务移交给了时任古巴总统米格尔·迪亚斯-卡内尔，并辞去所有职务，但在古巴仍然拥有影响力。 ...<BR><BR><a href="http://world.kbs.co.kr/service/news_view.htm?lang=c&Seq_Code=71814">[more...]</a><BR>]]></description><author>KBS WORLD Radio</author><pubDate>Fri, 04 Jun 2021 17:05:13 +0900</pubDate><category>南北韩</category><guid><![CDATA[http://world.kbs.co.kr/service/news_view.htm?lang=c&Seq_Code=71814]]></guid><enclosure url='http://worldimg.kbs.co.kr/src/images/news/202106/210604015634_17.jpg' type='image/jpeg' /></item><item><title><![CDATA[北韩新设劳动党第一书记]]></title><link><![CDATA[http://world.kbs.co.kr/service/news_view.htm?lang=c&Seq_Code=71767]]></link><description><![CDATA[ [南北韩] : <BR>韩国国际广播电台报道：北韩新设了劳动党第一书记职务，并将其纳入党章。

据推测，鉴于劳动党第一书记一职在没有获得政治信赖的情况下难以被任命，因此劳动党组织秘书赵勇元有可能被任命为劳动党第一书记。据北韩消息灵通人士1日透露，北韩在今年1月召开的劳动党第8次全国代表大会上讨论了第三个议程《修改劳动党章程》，这是北韩劳动党时隔5年再度修改党章，主要修订内容有新增强化国防力量、废除党政务局并恢复秘书局、提升党政治局和党中央检查委权限等，并在劳动党章程第3章“党的中央组织”第26项添加了“党中央委员会全体会议选举第一书记和书记”等内容。

劳动党第一书记是仅次于劳动党最高职位“总书记”权力的第二高职位。北韩新设劳动党第一书记意味着第一书记按照“党首委任”明确了可以接替金正恩总书记的工作职责。第一书记将分担一人统治下金正恩总书记的工作任务。 ...<BR><BR><a href="http://world.kbs.co.kr/service/news_view.htm?lang=c&Seq_Code=71767">[more...]</a><BR>]]></description><author>KBS WORLD Radio</author><pubDate>Tue, 01 Jun 2021 16:09:52 +0900</pubDate><category>南北韩</category><guid><![CDATA[http://world.kbs.co.kr/service/news_view.htm?lang=c&Seq_Code=71767]]></guid><enclosure url='http://worldimg.kbs.co.kr/src/images/news/202106/210601124515_61.jpg' type='image/jpeg' /></item><item><title><![CDATA[北韩谴责韩美终止导弹指南]]></title><link><![CDATA[http://world.kbs.co.kr/service/news_view.htm?lang=c&Seq_Code=71740]]></link><description><![CDATA[ [南北韩] : <BR>韩国国际广播电台报道：北韩官方媒体朝中社31日以国际问题评论员金明哲（音译）的名义发表文章谴责终止《韩美导弹指南》是美国故意的敌对行为。这是北韩首次对韩美首脑会谈作出回应。
 
报道指出，美国已多次批准修订导弹指南，解除南朝鲜弹头重量限制，而这次还取消了射程限制，美国的相关举动是故意的敌对行为。报道称，美国将朝鲜的自卫性措施坚持视作违反联合国决议的行为，却允许其追随者无限制开发导弹。美国只在口头上说希望与我们对话，却采取走向对立的举动，这就证明美国积极采取对朝敌视政策，并采取无耻的双重标准。

报道指出， 我们针对的不是南朝鲜而是美国，将以“以强对强、以善对善”的原则对待美国。朝鲜半岛紧张局势加剧将会导致威胁我们的势力陷入安全形势不稳定的境地。
 
报道还强烈谴责文在寅总统，称“文在寅的乱折腾将自己置于邻国的瞄准镜中”。

此前韩国时间22日凌晨，韩美首脑在华盛顿举行会谈，并在会谈结束后召开的联合记者会上宣布全面终止《韩美导弹指南》。

这是韩美首脑会谈结束后，北韩首次通过官方媒体对此作出回应。但北韩并非以外务省有关人士或机构的名义发表文章，而是以评论员个人名义发表言论，调整了谴责的强度。 ...<BR><BR><a href="http://world.kbs.co.kr/service/news_view.htm?lang=c&Seq_Code=71740">[more...]</a><BR>]]></description><author>KBS WORLD Radio</author><pubDate>Mon, 31 May 2021 09:59:59 +0900</pubDate><category>南北韩</category><guid><![CDATA[http://world.kbs.co.kr/service/news_view.htm?lang=c&Seq_Code=71740]]></guid><enclosure url='http://worldimg.kbs.co.kr/src/images/news/202105/210531094440_71.jpg' type='image/jpeg' /></item><item><title><![CDATA[美国务院：人权问题是美国外交政策的核心]]></title><link><![CDATA[http://world.kbs.co.kr/service/news_view.htm?lang=c&Seq_Code=71629]]></link><description><![CDATA[ [南北韩] : <BR>韩国国际广播电台报道：针对美国提及北韩人权问题存在破坏双方对话气氛之虞，美国国务院表示，人权问题是美国外交政策的核心。 
 
美国国务院发言人室有关人士当地时间17日对自由亚洲电台和美国之音要求美国国务院对该项问题置评时表示，美国注重将人权作为外交政策核心的问题。
 
这位人士表示，美国与拥有相同观点的国家将共同提高对蹂躏人权的呼声，北韩政权榨取本国人民，调用资源加强开发核与导弹等武器，北韩应对此负责。这位人士还说，我们向对方进行制裁并不以人道主义支援和援助活动等为对象。
 
美国国务院负责人权问题的副助理国务卿柯恩（RobertaCohen)在接受自由亚洲电台采访时表示，北韩的人权情况是我们最重视的问题，若北韩采取改善人权措施，美国与北韩可望尽快达成安全和制裁方面的协议。 ...<BR><BR><a href="http://world.kbs.co.kr/service/news_view.htm?lang=c&Seq_Code=71629">[more...]</a><BR>]]></description><author>KBS WORLD Radio</author><pubDate>Tue, 18 May 2021 16:26:57 +0900</pubDate><category>南北韩</category><guid><![CDATA[http://world.kbs.co.kr/service/news_view.htm?lang=c&Seq_Code=71629]]></guid><enclosure url='http://worldimg.kbs.co.kr/src/images/news/202105/210518013152_79.jpg' type='image/jpeg' /></item><item><title><![CDATA[南北韩问题专家：北韩已确保至少的粮食自给自足能力]]></title><link><![CDATA[http://world.kbs.co.kr/service/news_view.htm?lang=c&Seq_Code=71617]]></link><description><![CDATA[ [南北韩] : <BR>韩国国际广播电台报道：有分析认为，北韩已确保至少的粮食自给自足能力，粮食情况不同于外界所知。 
 
民主和平统一咨询会议17日在华克山庄以“对北韩变化的看法”为题举行了讨论会，南北韩问题专家在会议中作出了上述分析。
 
韩国统一研究院高级研究员金锡镇（音译）表示，北韩再次发生上世纪90年代中期和后期大饥荒的可能性不大。他说，从联合国粮农组织和韩国农村振兴厅的北韩粮食生产统计资料来看，北韩似乎是一个粮食十分短缺的国家，但相关统计是以粮米为主的部分统计而已，并未能完全涵盖北韩实际的粮食生产情况。
 
金锡镇说，北韩在农业方面已取得发展，除粮米之外，其他各种农水产品生产已大量增加，北韩居民已确保至少的粮食自给自足能力。 ...<BR><BR><a href="http://world.kbs.co.kr/service/news_view.htm?lang=c&Seq_Code=71617">[more...]</a><BR>]]></description><author>KBS WORLD Radio</author><pubDate>Tue, 18 May 2021 08:56:37 +0900</pubDate><category>南北韩</category><guid><![CDATA[http://world.kbs.co.kr/service/news_view.htm?lang=c&Seq_Code=71617]]></guid><enclosure url='http://worldimg.kbs.co.kr/src/images/news/202105/210518100535_36.jpg' type='image/jpeg' /></item><item><title><![CDATA[北韩军在军事分界线一带部署高射炮]]></title><link><![CDATA[http://world.kbs.co.kr/service/news_view.htm?lang=c&Seq_Code=71604]]></link><description><![CDATA[ [南北韩] : <BR>韩国国际广播电台报道：脱北者团体上月向北韩散发传单后，北韩军在军事分界线一带部署高射炮。
 
上月底，脱北者团体“自由北韩运动联合”利用大型气球向北韩散发50万张传单，并公开了相关视频。在韩国警方正在对此事件进行调查的情况下，北韩方面已回收飞到北韩地区的部分传单。随后，北韩军将可在地面攻击飞行物的高射炮部署在军事分界线一带。
 
北韩劳动党中央委员会副部长金与正2日谴责韩方向北韩散发传单的行为称，这是韩方对北韩的挑衅，并提及将采取相应措施的可能性。
 
据分析，北韩反应如此敏感与新冠疫情防控有关。近期，北韩媒体对疫情保持极度警惕称，飞来的物体也会成为病毒流入的原因。
 
在韩国军当局正在密切关注相关动向的情况下，韩国政府致力于管理情况。
 
据分析，文在寅总统在发表特别演讲时表示，将依法严厉应对向北韩散发传单的行为也与此有关。 ...<BR><BR><a href="http://world.kbs.co.kr/service/news_view.htm?lang=c&Seq_Code=71604">[more...]</a><BR>]]></description><author>KBS WORLD Radio</author><pubDate>Mon, 17 May 2021 09:26:00 +0900</pubDate><category>南北韩</category><guid><![CDATA[http://world.kbs.co.kr/service/news_view.htm?lang=c&Seq_Code=71604]]></guid><enclosure url='http://worldimg.kbs.co.kr/src/images/news/202105/210517092628_21.jpg' type='image/jpeg' /></item><item><title><![CDATA[北韩发行金正恩外交活动画册 未收录南北首脑会谈内容]]></title><link><![CDATA[http://world.kbs.co.kr/service/news_view.htm?lang=c&Seq_Code=71575]]></link><description><![CDATA[ [南北韩] : <BR>韩国国际广播电台报道：北韩记录国务委员长金正恩外交活动的画册未收录南北首脑会谈相关内容。

北韩外文出版社12日发刊了题为《开启对外关系发展新时代》的画册，收录了2018年3月-2019年6月金正恩与各国首脑会晤、举行正式会谈的照片。画册中不仅收录了金正恩与中国国家主席习近平、俄罗斯总统普京等友好国家首脑的会谈照片，与美国前总统特朗普的首脑会谈照片也包含在内。

金正恩与习近平、普京的合影旁标有“朝中、朝俄亲善”、“兄弟情谊”、“同志信赖”、“深厚亲善”等说明，强调与有关国家的传统友好关系。画册还将2018年6月第一次美北首脑会谈描述为“开拓朝美关系新历史的世纪会晤”，并收录了金正恩与特朗普握手、交谈、签署联合声明等照片。

画册将破裂的2019年2月河内会谈描述为“历史性的第二次朝美首脑会谈”，记录了金正恩称“只要发挥智慧和忍耐，便可跨越难关、发展朝美关系”的发言。画册还收录了特朗普于2019年6月在板门店与金正恩会晤并跨过军事分界线的照片，并描述为“美国时任总统历史上首次跨过军事分界线、踏上朝鲜民主主义人民共和国领土”，“敌对已久的两国在反目仇视的关系中创造出史无前例的信任”。

不过画册并未收录当时同行的韩国总统文在寅的照片，也未收录2018年4月、5月和9月南北首脑会谈的照片。分析认为，这有可能是因为北韩并不认为对南关系属于对外关系，同时也考虑到了南北关系陷入僵局的情况。 ...<BR><BR><a href="http://world.kbs.co.kr/service/news_view.htm?lang=c&Seq_Code=71575">[more...]</a><BR>]]></description><author>KBS WORLD Radio</author><pubDate>Thu, 13 May 2021 09:30:49 +0900</pubDate><category>南北韩</category><guid><![CDATA[http://world.kbs.co.kr/service/news_view.htm?lang=c&Seq_Code=71575]]></guid><enclosure url='http://worldimg.kbs.co.kr/src/images/news/202010/201003015759_80.jpg' type='image/jpeg' /></item></channel></rss>